{
  "title": "Infront config service API",
  "dateLibrary": "java8",
  "groupId": "dev.infrontfinance.hackathon.iodevices.cfgservice",
  "artifactId": "config-service-client",
  "basePackage": "dev.infrontfinance.hackathon.iodevices.cfgservice.client",
  "apiPackage": "dev.infrontfinance.hackathon.iodevices.cfgservice.client.api",
  "modelPackage": "dev.infrontfinance.hackathon.iodevices.cfgservice.client.model",
  "configPackage": "dev.infrontfinance.hackathon.iodevices.cfgservice.client.config",
  "async": false,
  "useOptional": false,
  "useBeanValidation": false,
  "library": "feign"
}
